new/src/vcd/rv32mi-p-csr.vcd
$date
	Mon Aug 14 01:39:44 2023
$end
$version
	Icarus Verilog
$end
$timescale
	1ps
$end
$scope module startup $end
$scope module core $end
$var wire 1 ! clk $end
$var wire 1 " rst $end
$var wire 32 # memory_read_data [31:0] $end
$var wire 32 $ memory_program_data [31:0] $end
$var wire 5 % mem_wb_rd_addr [4:0] $end
$var wire 20 & mem_wb_csr_addr [19:0] $end
$var wire 5 ' id_rs2_addr [4:0] $end
$var wire 5 ( id_rs1_addr [4:0] $end
$var wire 5 ) id_ex_rd_addr [4:0] $end
$var wire 32 * id_ex_imm_z_uext [31:0] $end
$var wire 5 + id_ex_imm_z [4:0] $end
$var wire 32 , id_ex_imm_u_shifted_sext [31:0] $end
$var wire 20 - id_ex_imm_u [19:0] $end
$var wire 32 . id_ex_imm_s_sext [31:0] $end
$var wire 12 / id_ex_imm_s [11:0] $end
$var wire 32 0 id_ex_imm_j_sext [31:0] $end
$var wire 21 1 id_ex_imm_j [20:0] $end
$var wire 32 2 id_ex_imm_i_sext [31:0] $end
$var wire 12 3 id_ex_imm_i [11:0] $end
$var wire 32 4 id_ex_imm_b_sext [31:0] $end
$var wire 13 5 id_ex_imm_b [12:0] $end
$var wire 20 6 id_ex_csr_addr [19:0] $end
$var wire 5 7 ex_mem_rd_addr [4:0] $end
$var wire 20 8 ex_mem_csr_addr [19:0] $end
$var reg 32 9 alu_out [31:0] $end
$var reg 32 : ex_mem_alu_out [31:0] $end
$var reg 32 ; ex_mem_inst [31:0] $end
$var reg 32 < ex_mem_pc [31:0] $end
$var reg 32 = ex_mem_rs1_data [31:0] $end
$var reg 32 > ex_mem_rs2_data [31:0] $end
$var reg 32 ? id_ex_inst [31:0] $end
$var reg 32 @ id_ex_pc [31:0] $end
$var reg 32 A id_ex_rs1_data [31:0] $end
$var reg 32 B id_ex_rs2_data [31:0] $end
$var reg 2 C id_ex_stall_flag [1:0] $end
$var reg 1 D id_mem_stall_flag $end
$var reg 32 E id_rs1_data [31:0] $end
$var reg 32 F id_rs2_data [31:0] $end
$var reg 32 G if_ie_inst [31:0] $end
$var reg 32 H if_ie_pc [31:0] $end
$var reg 32 I jmp_addr [31:0] $end
$var reg 1 J jmp_flag $end
$var reg 32 K mem_wb_alu_out [31:0] $end
$var reg 32 L mem_wb_inst [31:0] $end
$var reg 32 M mem_wb_memory_read_data [31:0] $end
$var reg 1 N memory_data_load $end
$var reg 1 O memory_program_load $end
$var reg 1 P memory_wen $end
$var reg 32 Q pc [31:0] $end
$var reg 1 R stall_flag $end
$var integer 32 S i [31:0] $end
$scope module memory $end
$var wire 1 N data_load $end
$var wire 32 T program_addr [31:0] $end
$var wire 1 O program_load $end
$var wire 32 U read_addr [31:0] $end
$var wire 1 P wen $end
$var wire 32 V write_addr [31:0] $end
$var wire 32 W write_data [31:0] $end
$var reg 32 X program_data [31:0] $end
$var reg 32 Y read_data [31:0] $end
$upscope $end
$upscope $end
$upscope $end
$scope module startup $end
$scope module core $end
$scope module memory $end
$var reg 8 Z \m[0] [7:0] $end
$upscope $end
$upscope $end
$upscope $end
$scope module startup $end
$scope module core $end
$scope module memory $end
$var reg 8 [ \m[1] [7:0] $end
$upscope $end
$upscope $end
$upscope $end
$scope module startup $end
$scope module core $end
$scope module memory $end
$var reg 8 \ \m[2] [7:0] $end
$upscope $end
$upscope $end
$upscope $end
$scope module startup $end
$scope module core $end
$scope module memory $end
$var reg 8 ] \m[3] [7:0] $end
$upscope $end
$upscope $end
$upscope $end
$scope module startup $end
$scope module core $end
$scope module memory $end
$var reg 8 ^ \m[4] [7:0] $end
$upscope $end
$upscope $end
$upscope $end
$scope module startup $end
$scope module core $end
$scope module memory $end
$var reg 8 _ \m[5] [7:0] $end
$upscope $end
$upscope $end
$upscope $end
$scope module startup $end
$scope module core $end
$scope module memory $end
$var reg 8 ` \m[6] [7:0] $end
$upscope $end
$upscope $end
$upscope $end
$scope module startup $end
$scope module core $end
$scope module memory $end
$var reg 8 a \m[7] [7:0] $end
$upscope $end
$upscope $end
$upscope $end
$scope module startup $end
$scope module core $end
$scope module memory $end
$var reg 8 b \m[8] [7:0] $end
$upscope $end
$upscope $end
$upscope $end
$scope module startup $end
$scope module core $end
$scope module memory $end
$var reg 8 c \m[9] [7:0] $end
$upscope $end
$upscope $end
$upscope $end
$scope module startup $end
$scope module core $end
$scope module memory $end
$var reg 8 d \m[10] [7:0] $end
$upscope $end
$upscope $end
$upscope $end
$scope module startup $end
$scope module core $end
$scope module memory $end
$var reg 8 e \m[11] [7:0] $end
$upscope $end
$upscope $end
$upscope $end
$scope module startup $end
$scope module core $end
$scope module memory $end
$var reg 8 f \m[12] [7:0] $end
$upscope $end
$upscope $end
$upscope $end
$scope module startup $end
$scope module core $end
$scope module memory $end
$var reg 8 g \m[13] [7:0] $end
$upscope $end
$upscope $end
$upscope $end
$scope module startup $end
$scope module core $end
$scope module memory $end
$var reg 8 h \m[14] [7:0] $end
$upscope $end
$upscope $end
$upscope $end
$scope module startup $end
$scope module core $end
$scope module memory $end
$var reg 8 i \m[15] [7:0] $end
$upscope $end
$upscope $end
$upscope $end
$scope module startup $end
$scope module core $end
$scope module memory $end
$var reg 8 j \m[16] [7:0] $end
$upscope $end
$upscope $end
$upscope $end
$scope module startup $end
$scope module core $end
$scope module memory $end
$var reg 8 k \m[17] [7:0] $end
$upscope $end
$upscope $end
$upscope $end
$scope module startup $end
$scope module core $end
$scope module memory $end
$var reg 8 l \m[18] [7:0] $end
$upscope $end
$upscope $end
$upscope $end
$scope module startup $end
$scope module core $end
$scope module memory $end
$var reg 8 m \m[19] [7:0] $end
$upscope $end
$upscope $end
$upscope $end
$scope module startup $end
$scope module core $end
$scope module memory $end
$var reg 8 n \m[20] [7:0] $end
$upscope $end
$upscope $end
$upscope $end
$scope module startup $end
$scope module core $end
$scope module memory $end
$var reg 8 o \m[21] [7:0] $end
$upscope $end
$upscope $end
$upscope $end
$scope module startup $end
$scope module core $end
$scope module memory $end
$var reg 8 p \m[22] [7:0] $end
$upscope $end
$upscope $end
$upscope $end
$scope module startup $end
$scope module core $end
$scope module memory $end
$var reg 8 q \m[23] [7:0] $end
$upscope $end
$upscope $end
$upscope $end
$scope module startup $end
$scope module core $end
$scope module memory $end
$var reg 8 r \m[24] [7:0] $end
$upscope $end
$upscope $end
$upscope $end
$scope module startup $end
$scope module core $end
$scope module memory $end
$var reg 8 s \m[25] [7:0] $end
$upscope $end
$upscope $end
$upscope $end
$scope module startup $end
$scope module core $end
$scope module memory $end
$var reg 8 t \m[26] [7:0] $end
$upscope $end
$upscope $end
$upscope $end
$scope module startup $end
$scope module core $end
$scope module memory $end
$var reg 8 u \m[27] [7:0] $end
$upscope $end
$upscope $end
$upscope $end
$scope module startup $end
$scope module core $end
$scope module memory $end
$var reg 8 v \m[28] [7:0] $end
$upscope $end
$upscope $end
$upscope $end
$scope module startup $end
$scope module core $end
$scope module memory $end
$var reg 8 w \m[29] [7:0] $end
$upscope $end
$upscope $end
$upscope $end
$scope module startup $end
$scope module core $end
$scope module memory $end
$var reg 8 x \m[30] [7:0] $end
$upscope $end
$upscope $end
$upscope $end
$scope module startup $end
$scope module core $end
$scope module memory $end
$var reg 8 y \m[31] [7:0] $end
$upscope $end
$upscope $end
$upscope $end
$scope module startup $end
$scope module core $end
$var reg 32 z \rs[0] [31:0] $end
$upscope $end
$upscope $end
$scope module startup $end
$scope module core $end
$var reg 32 { \rs[1] [31:0] $end
$upscope $end
$upscope $end
$scope module startup $end
$scope module core $end
$var reg 32 | \rs[2] [31:0] $end
$upscope $end
$upscope $end
$scope module startup $end
$scope module core $end
$var reg 32 } \rs[3] [31:0] $end
$upscope $end
$upscope $end
$scope module startup $end
$scope module core $end
$var reg 32 ~ \rs[4] [31:0] $end
$upscope $end
$upscope $end
$scope module startup $end
$scope module core $end
$var reg 32 !" \rs[5] [31:0] $end
$upscope $end
$upscope $end
$scope module startup $end
$scope module core $end
$var reg 32 "" \rs[6] [31:0] $end
$upscope $end
$upscope $end
$scope module startup $end
$scope module core $end
$var reg 32 #" \rs[7] [31:0] $end
$upscope $end
$upscope $end
$scope module startup $end
$scope module core $end
$var reg 32 $" \rs[8] [31:0] $end
$upscope $end
$upscope $end
$scope module startup $end
$scope module core $end
$var reg 32 %" \rs[9] [31:0] $end
$upscope $end
$upscope $end
$scope module startup $end
$scope module core $end
$var reg 32 &" \rs[10] [31:0] $end
$upscope $end
$upscope $end
$scope module startup $end
$scope module core $end
$var reg 32 '" \rs[11] [31:0] $end
$upscope $end
$upscope $end
$scope module startup $end
$scope module core $end
$var reg 32 (" \rs[12] [31:0] $end
$upscope $end
$upscope $end
$scope module startup $end
$scope module core $end
$var reg 32 )" \rs[13] [31:0] $end
$upscope $end
$upscope $end
$scope module startup $end
$scope module core $end
$var reg 32 *" \rs[14] [31:0] $end
$upscope $end
$upscope $end
$scope module startup $end
$scope module core $end
$var reg 32 +" \rs[15] [31:0] $end
$upscope $end
$upscope $end
$scope module startup $end
$scope module core $end
$var reg 32 ," \rs[16] [31:0] $end
$upscope $end
$upscope $end
$scope module startup $end
$scope module core $end
$var reg 32 -" \rs[17] [31:0] $end
$upscope $end
$upscope $end
$scope module startup $end
$scope module core $end
$var reg 32 ." \rs[18] [31:0] $end
$upscope $end
$upscope $end
$scope module startup $end
$scope module core $end
$var reg 32 /" \rs[19] [31:0] $end
$upscope $end
$upscope $end
$scope module startup $end
$scope module core $end
$var reg 32 0" \rs[20] [31:0] $end
$upscope $end
$upscope $end
$scope module startup $end
$scope module core $end
$var reg 32 1" \rs[21] [31:0] $end
$upscope $end
$upscope $end
$scope module startup $end
$scope module core $end
$var reg 32 2" \rs[22] [31:0] $end
$upscope $end
$upscope $end
$scope module startup $end
$scope module core $end
$var reg 32 3" \rs[23] [31:0] $end
$upscope $end
$upscope $end
$scope module startup $end
$scope module core $end
$var reg 32 4" \rs[24] [31:0] $end
$upscope $end
$upscope $end
$scope module startup $end
$scope module core $end
$var reg 32 5" \rs[25] [31:0] $end
$upscope $end
$upscope $end
$scope module startup $end
$scope module core $end
$var reg 32 6" \rs[26] [31:0] $end
$upscope $end
$upscope $end
$scope module startup $end
$scope module core $end
$var reg 32 7" \rs[27] [31:0] $end
$upscope $end
$upscope $end
$scope module startup $end
$scope module core $end
$var reg 32 8" \rs[28] [31:0] $end
$upscope $end
$upscope $end
$scope module startup $end
$scope module core $end
$var reg 32 9" \rs[29] [31:0] $end
$upscope $end
$upscope $end
$scope module startup $end
$scope module core $end
$var reg 32 :" \rs[30] [31:0] $end
$upscope $end
$upscope $end
$scope module startup $end
$scope module core $end
$var reg 32 ;" \csr[773] [31:0] $end
$upscope $end
$upscope $end
$scope module startup $end
$scope module core $end
$var reg 32 <" \csr[305] [31:0] $end
$upscope $end
$upscope $end
$enddefinitions $end
#0
$dumpvars
b0 <"
b0 ;"
b0 :"
b0 9"
b0 8"
b0 7"
b0 6"
b0 5"
b0 4"
b0 3"
b0 2"
b0 1"
b0 0"
b0 /"
b0 ."
b0 -"
b0 ,"
b0 +"
b0 *"
b0 )"
b0 ("
b0 '"
b0 &"
b0 %"
b0 $"
b0 #"
b0 ""
b0 !"
b0 ~
b0 }
b0 |
b0 {
b0 z
b11 y
b11111111 x
b10 w
b1100011 v
b0 u
b10110000 t
b1111 s
b10010011 r
b11 q
b11111111 p
b110 o
b1100011 n
b0 m
b10010000 l
b1111 k
b10010011 j
b11 i
b11111111 h
b1010 g
b1100011 f
b0 e
b10000000 d
b1111 c
b10010011 b
b110100 a
b100000 `
b101111 _
b1110011 ^
b100 ]
b11000000 \
b0 [
b1101111 Z
bx Y
b100110000000000000001101111 X
bx W
bx V
bx U
b0 T
b1000000000000 S
0R
b0 Q
1P
0O
1N
bx M
bx L
bx K
0J
b0 I
bx H
bx G
bx F
bx E
0D
b0 C
bx B
bx A
bx @
bx ?
bx >
bx =
bx <
bx ;
bx :
bx 9
b0xxxxxxxxxxxx 8
bx 7
b0xxxxxxxxxxxx 6
bx0 5
bx0 4
bx 3
bx 2
bx0 1
bx0 0
bx /
bx .
bx -
bx000000000000 ,
bx +
b0xxxxx *
bx )
bx (
bx '
b0xxxxxxxxxxxx &
bx %
b100110000000000000001101111 $
bx #
0"
1!
$end
#1000
b0 z
1O
#5000
b0 (
b1100 '
b0 H
b100110000000000000001101111 G
0!
#10000
b0 z
b110100001000000010111101110011 $
b110100001000000010111101110011 X
1"
b0 F
b0 E
0O
b100 Q
b100 T
1!
#11000
b0 z
1O
#15000
b0 )
b1001100 2
b1001100 3
b1000000 .
b1000000 /
b1000000 4
b1000000 5
b1001100 0
b1001100 1
b100110000000000000000000000 ,
b100110000000000 -
b1001100 6
b0 *
b0 +
b10 '
b0 B
b0 A
b100110000000000000001101111 ?
b0 @
b100 H
b110100001000000010111101110011 G
0!
#20000
b0 z
b100000000000111110010011 $
b100000000000111110010011 X
0O
b1000 Q
b1000 T
b1 C
b1001100 9
0"
1!
#21000
b0 z
1O
#25000
b0 2
b0 3
b0 .
b0 /
b0 4
b0 5
b0 0
b0 1
b0 ,
b0 -
b0 6
b0 7
b1001100 8
b110011 ?
b100 @
b100110000000000000001101111 ;
b0 >
b0 W
b0 =
b1001100 :
b1001100 U
b1001100 V
b0 <
0!
#30000
b0 z
b1001100 I
1J
b0 9
0O
b0 C
1!
#31000
b0 z
1O
#35000
b0 %
b0 &
b0 8
b0 '
b1001100 K
b110011 L
b110011 ;
b0 :
b0 U
b0 V
b100 <
b110011 G
0!
#40000
b10010011 $
b10010011 X
0O
0J
b1001100 Q
b1001100 T
b0 z
1!
#41000
b0 z
1O
#45000
b1001100 H
b10010011 G
b0 K
0!
#50000
b100010011 $
b100010011 X
b0 z
0O
b1010000 Q
b1010000 T
1!
#51000
b0 z
1O
#55000
b1 )
b1 .
b1 /
b100000000000 4
b100000000000 5
b10010011 ?
b1001100 @
b1010000 H
b100010011 G
0!
#60000
b110010011 $
b110010011 X
0O
b1010100 Q
b1010100 T
1D
b0 z
1!
#61000
b0 z
1O
#65000
b1 7
b1010000 @
b10010011 ;
b1001100 <
0!
#70000
b0 z
0O
0D
1!
#71000
b0 z
1O
#75000
b1 %
b10 )
b10 .
b10 /
b10 4
b10 5
b10010011 L
b1010000 <
b100010011 ?
b1010100 H
b110010011 G
0!
#80000
b0 z
b1000010011 $
b1000010011 X
0O
b1011000 Q
b1011000 T
b0 {
1!
#81000
b0 z
1O
#85000
b11 )
b11 .
b11 /
b100000000010 4
b100000000010 5
b10 7
b1011000 H
b1000010011 G
b110010011 ?
b1010100 @
b100010011 ;
0!
#90000
b0 z
b1010010011 $
b1010010011 X
b0 {
0O
b1011100 Q
b1011100 T
1!
#91000
b0 z
1O
#95000
b10 %
b11 7
b100 )
b100 .
b100 /
b100 4
b100 5
b100010011 L
b110010011 ;
b1010100 <
b1000010011 ?
b1011000 @
b1011100 H
b1010010011 G
0!
#100000
b0 z
b1100010011 $
b1100010011 X
0O
b1100000 Q
b1100000 T
b0 |
1!
#101000
b0 z
1O
#105000
b101 )
b101 .
b101 /
b100000000100 4
b100000000100 5
b100 7
b11 %
b1100000 H
b1100010011 G
b1010010011 ?
b1011100 @
b1000010011 ;
b1011000 <
b110010011 L
0!
#110000
b0 z
b1110010011 $
b1110010011 X
b0 }
0O
b1100100 Q
b1100100 T
1!
#111000
b0 z
1O
#115000
b100 %
b101 7
b110 )
b110 .
b110 /
b110 4
b110 5
b1000010011 L
b1010010011 ;
b1011100 <
b1100010011 ?
b1100000 @
b1100100 H
b1110010011 G
0!
#120000
b0 z
b10000010011 $
b10000010011 X
0O
b1101000 Q
b1101000 T
b0 ~
1!
#121000
b0 z
1O
#125000
b111 )
b111 .
b111 /
b100000000110 4
b100000000110 5
b110 7
b101 %
b1101000 H
b10000010011 G
b1110010011 ?
b1100100 @
b1100010011 ;
b1100000 <
b1010010011 L
0!
#130000
b0 z
b10010010011 $
b10010010011 X
b0 !"
0O
b1101100 Q
b1101100 T
1!
#131000
b0 z
1O
#135000
b110 %
b111 7
b1000 )
b1000 .
b1000 /
b1000 4
b1000 5
b1100010011 L
b1110010011 ;
b1100100 <
b10000010011 ?
b1101000 @
b1101100 H
b10010010011 G
0!
#140000
b0 z
b10100010011 $
b10100010011 X
0O
b1110000 Q
b1110000 T
b0 ""
1!
#141000
b0 z
1O
#145000
b1001 )
b1001 .
b1001 /
b100000001000 4
b100000001000 5
b1000 7
b111 %
b1110000 H
b10100010011 G
b10010010011 ?
b1101100 @
b10000010011 ;
b1101000 <
b1110010011 L
0!
#150000
b0 z
b10110010011 $
b10110010011 X
b0 #"
0O
b1110100 Q
b1110100 T
1!
#151000
b0 z
1O
#155000
b1000 %
b1001 7
b1010 )
b1010 .
b1010 /
b1010 4
b1010 5
b10000010011 L
b10010010011 ;
b1101100 <
b10100010011 ?
b1110000 @
b1110100 H
b10110010011 G
0!
#160000
b0 z
b11000010011 $
b11000010011 X
0O
b1111000 Q
b1111000 T
b0 $"
1!
#161000
b0 z
1O
#165000
b1011 )
b1011 .
b1011 /
b100000001010 4
b100000001010 5
b1010 7
b1001 %
b1111000 H
b11000010011 G
b10110010011 ?
b1110100 @
b10100010011 ;
b1110000 <
b10010010011 L
0!
#170000
b0 z
b11010010011 $
b11010010011 X
b0 %"
0O
b1111100 Q
b1111100 T
1!
#171000
b0 z
1O
#175000
b1010 %
b1011 7
b1100 )
b1100 .
b1100 /
b1100 4
b1100 5
b10100010011 L
b10110010011 ;
b1110100 <
b11000010011 ?
b1111000 @
b1111100 H
b11010010011 G
0!
#180000
b0 z
b11100010011 $
b11100010011 X
0O
b10000000 Q
b10000000 T
b0 &"
1!
#181000
b0 z
1O
#185000
b1101 )
b1101 .
b1101 /
b100000001100 4
b100000001100 5
b1100 7
b1011 %
b10000000 H
b11100010011 G
b11010010011 ?
b1111100 @
b11000010011 ;
b1111000 <
b10110010011 L
0!
#190000
b0 z
b11110010011 $
b11110010011 X
b0 '"
0O
b10000100 Q
b10000100 T
1!
#191000
b0 z
1O
#195000
b1100 %
b1101 7
b1110 )
b1110 .
b1110 /
b1110 4
b1110 5
b11000010011 L
b11010010011 ;
b1111100 <
b11100010011 ?
b10000000 @
b10000100 H
b11110010011 G
0!
#200000
b0 z
b100000010011 $
b100000010011 X
0O
b10001000 Q
b10001000 T
b0 ("
1!
#201000
b0 z
1O
#205000
b1111 )
b1111 .
b1111 /
b100000001110 4
b100000001110 5
b1110 7
b1101 %
b10001000 H
b100000010011 G
b11110010011 ?
b10000100 @
b11100010011 ;
b10000000 <
b11010010011 L
0!
#210000
b0 z
b100010010011 $
b100010010011 X
b0 )"
0O
b10001100 Q
b10001100 T
1!
#211000
b0 z
1O
#215000
b1110 %
b1111 7
b10000 )
b10000 .
b10000 /
b10000 4
b10000 5
b11100010011 L
b11110010011 ;
b10000100 <
b100000010011 ?
b10001000 @
b10001100 H
b100010010011 G
0!
#220000
b0 z
b100100010011 $
b100100010011 X
0O
b10010000 Q
b10010000 T
b0 *"
1!
#221000
b0 z
1O
#225000
b10001 )
b10001 .
b10001 /
b100000010000 4
b100000010000 5
b10000 7
b1111 %
b10010000 H
b100100010011 G
b100010010011 ?
b10001100 @
b100000010011 ;
b10001000 <
b11110010011 L
0!
#230000
b0 z
b100110010011 $
b100110010011 X
b0 +"
0O
b10010100 Q
b10010100 T
1!
#231000
b0 z
1O
#235000
b10000 %
b10001 7
b10010 )
b10010 .
b10010 /
b10010 4
b10010 5
b100000010011 L
b100010010011 ;
b10001100 <
b100100010011 ?
b10010000 @
b10010100 H
b100110010011 G
0!
#240000
b0 z
b101000010011 $
b101000010011 X
0O
b10011000 Q
b10011000 T
b0 ,"
1!
#241000
b0 z
1O
#245000
b10011 )
b10011 .
b10011 /
b100000010010 4
b100000010010 5
b10010 7
b10001 %
b10011000 H
b101000010011 G
b100110010011 ?
b10010100 @
b100100010011 ;
b10010000 <
b100010010011 L
0!
#250000
b0 z
b101010010011 $
b101010010011 X
b0 -"
0O
b10011100 Q
b10011100 T
1!
#251000
b0 z
1O
#255000
b10010 %
b10011 7
b10100 )
b10100 .
b10100 /
b10100 4
b10100 5
b100100010011 L
b100110010011 ;
b10010100 <
b101000010011 ?
b10011000 @
b10011100 H
b101010010011 G
0!
#260000
b0 z
b101100010011 $
b101100010011 X
0O
b10100000 Q
b10100000 T
b0 ."
1!
#261000
b0 z
1O
#265000
b10101 )
b10101 .
b10101 /
b100000010100 4
b100000010100 5
b10100 7
b10011 %
b10100000 H
b101100010011 G
b101010010011 ?
b10011100 @
b101000010011 ;
b10011000 <
b100110010011 L
0!
#270000
b0 z
b101110010011 $
b101110010011 X
b0 /"
0O
b10100100 Q
b10100100 T
1!
#271000
b0 z
1O
#275000
b10100 %
b10101 7
b10110 )
b10110 .
b10110 /
b10110 4
b10110 5
b101000010011 L
b101010010011 ;
b10011100 <
b101100010011 ?
b10100000 @
b10100100 H
b101110010011 G
0!
#280000
b0 z
b110000010011 $
b110000010011 X
0O
b10101000 Q
b10101000 T
b0 0"
1!
#281000
b0 z
1O
#285000
b10111 )
b10111 .
b10111 /
b100000010110 4
b100000010110 5
b10110 7
b10101 %
b10101000 H
b110000010011 G
b101110010011 ?
b10100100 @
b101100010011 ;
b10100000 <
b101010010011 L
0!
#290000
b0 z
b110010010011 $
b110010010011 X
b0 1"
0O
b10101100 Q
b10101100 T
1!
#291000
b0 z
1O
#295000
b10110 %
b10111 7
b11000 )
b11000 .
b11000 /
b11000 4
b11000 5
b101100010011 L
b101110010011 ;
b10100100 <
b110000010011 ?
b10101000 @
b10101100 H
b110010010011 G
0!
#300000
b0 z
b110100010011 $
b110100010011 X
0O
b10110000 Q
b10110000 T
b0 2"
1!
#301000
b0 z
1O
#305000
b11001 )
b11001 .
b11001 /
b100000011000 4
b100000011000 5
b11000 7
b10111 %
b10110000 H
b110100010011 G
b110010010011 ?
b10101100 @
b110000010011 ;
b10101000 <
b101110010011 L
0!
#310000
b0 z
b110110010011 $
b110110010011 X
b0 3"
0O
b10110100 Q
b10110100 T
1!
#311000
b0 z
1O
#315000
b11000 %
b11001 7
b11010 )
b11010 .
b11010 /
b11010 4
b11010 5
b110000010011 L
b110010010011 ;
b10101100 <
b110100010011 ?
b10110000 @
b10110100 H
b110110010011 G
0!
#320000
b0 z
b111000010011 $
b111000010011 X
0O
b10111000 Q
b10111000 T
b0 4"
1!
#321000
b0 z
1O
#325000
b11011 )
b11011 .
b11011 /
b100000011010 4
b100000011010 5
b11010 7
b11001 %
b10111000 H
b111000010011 G
b110110010011 ?
b10110100 @
b110100010011 ;
b10110000 <
b110010010011 L
0!
#330000
b0 z
b111010010011 $
b111010010011 X
b0 5"
0O
b10111100 Q
b10111100 T
1!
#331000
b0 z
1O
#335000
b11010 %
b11011 7
b11100 )
b11100 .
b11100 /
b11100 4
b11100 5
b110100010011 L
b110110010011 ;
b10110100 <
b111000010011 ?
b10111000 @
b10111100 H
b111010010011 G
0!
#340000
b0 z
b111100010011 $
b111100010011 X
0O
b11000000 Q
b11000000 T
b0 6"
1!
#341000
b0 z
1O
#345000
b11101 )
b11101 .
b11101 /
b100000011100 4
b100000011100 5
b11100 7
b11011 %
b11000000 H
b111100010011 G
b111010010011 ?
b10111100 @
b111000010011 ;
b10111000 <
b110110010011 L
0!
#350000
b0 z
b111110010011 $
b111110010011 X
b0 7"
0O
b11000100 Q
b11000100 T
1!
#351000
b0 z
1O
#355000
b11100 %
b11101 7
b11110 )
b11110 .
b11110 /
b11110 4
b11110 5
b111000010011 L
b111010010011 ;
b10111100 <
b111100010011 ?
b11000000 @
b11000100 H
b111110010011 G
0!
#360000
b0 z
b11110001010000000010010101110011 $
b11110001010000000010010101110011 X
0O
b11001000 Q
b11001000 T
b0 8"
1!
#361000
b0 z
1O
#365000
b10100 '
b11111 )
b11111 .
b11111 /
b100000011110 4
b100000011110 5
b11110 7
b11101 %
b11001000 H
b11110001010000000010010101110011 G
b111110010011 ?
b11000100 @
b111100010011 ;
b11000000 <
b111010010011 L
0!
#370000
b0 z
b1010001000001100011 $
b1010001000001100011 X
b0 9"
0O
b11001100 Q
b11001100 T
1!
#371000
b0 z
1O
#375000
b11110 %
b11111 7
b1010 )
b11111111111111111111111100010100 2
b111100010100 3
b11111111111111111111111100001010 .
b111100001010 /
b11111111111111111111011100001010 4
b1011100001010 5
b11111111111100000010011100010100 0
b100000010011100010100 1
b11110001010000000010000000000000 ,
b11110001010000000010 -
b111100010100 6
b1010 (
b0 '
b111100010011 L
b111110010011 ;
b11000100 <
b11110001010000000010010101110011 ?
b11001000 @
b11001100 H
b1010001000001100011 G
0!
#380000
b0 z
b1010010111 $
b1010010111 X
0O
b11010000 Q
b11010000 T
b1 C
b0 :"
1!
#381000
b0 z
1O
#385000
b0 )
b0 2
b0 3
b0 .
b0 /
b0 4
b0 5
b0 0
b0 1
b0 ,
b0 -
b0 6
b1010 7
b111100010100 8
b11111 %
b110011 ?
b11001100 @
b11110001010000000010010101110011 ;
b11001000 <
b111110010011 L
0!
#390000
b0 z
0O
b10 C
1!
#391000
b0 z
1O
#395000
b1010 %
b111100010100 &
b0 7
b0 8
b11110001010000000010010101110011 L
b110011 ;
b11001100 <
0!
#400000
b0 z
0O
b0 C
b0 &"
1!
#401000
b0 z
1O
#405000
b0 (
b1010001000000000000 0
b1010001000000000000 1
b1010001000000000000 ,
b1010001 -
b1010 *
b1010 +
b0 %
b0 &
b11010000 H
b1010010111 G
b1010001000001100011 ?
b110011 L
0!
#410000
b1000000101000001010010011 $
b1000000101000001010010011 X
b0 z
b1 C
1D
0O
b11010100 Q
b11010100 T
1!
#411000
b0 z
1O
#415000
b1010001000001100011 ;
b11010000 @
0!
#420000
0O
0D
b0 I
b0 z
1!
#421000
b0 z
1O
#425000
b0 0
b0 1
b0 ,
b0 -
b0 *
b0 +
b110011 ?
b11010000 <
b1010001000001100011 L
0!
#430000
b0 z
0O
b10 C
1!
#431000
b0 z
1O
#435000
b110011 ;
0!
#440000
b0 z
0O
b0 C
1!
#441000
b0 z
1O
#445000
b101 (
b10000 '
b101 )
b101 .
b101 /
b100000000100 4
b100000000100 5
b11010100 H
b1000000101000001010010011 G
b1010010111 ?
b110011 L
0!
#450000
b110000010100101001000001110011 $
b110000010100101001000001110011 X
b0 z
b11010000 9
b1 C
0O
b11011000 Q
b11011000 T
1!
#451000
b0 z
1O
#455000
b101 7
b0 )
b0 .
b0 /
b0 4
b0 5
b1010010111 ;
b11010000 :
b11010000 U
b11010000 V
b110011 ?
b11010100 @
0!
#460000
0O
b10 C
b0 9
b0 z
1!
#461000
b0 z
1O
#465000
b0 7
b101 %
b110011 ;
b0 :
b0 U
b0 V
b11010100 <
b11010000 K
b1010010111 L
0!
#470000
b0 z
b11010000 !"
b11010000 E
0O
b0 C
1!
#471000
b0 z
1O
#475000
b0 %
b101 )
b10000 2
b10000 3
b101 .
b101 /
b100000000100 4
b100000000100 5
b101000000000010000 0
b101000000000010000 1
b1000000101000000000000000 ,
b1000000101000 -
b10000 6
b101 *
b101 +
b101 '
b0 K
b110011 L
b11010000 A
b1000000101000001010010011 ?
b11011000 H
b110000010100101001000001110011 G
0!
#480000
b11000000000000101000001110011 $
b11000000000000101000001110011 X
0O
b11011100 Q
b11011100 T
b11010000 F
b1 C
b11100000 9
b0 z
1!
#481000
b0 z
1O
#485000
b0 )
b0 2
b0 3
b0 .
b0 /
b0 4
b0 5
b0 0
b0 1
b0 ,
b0 -
b0 6
b0 *
b0 +
b101 7
b10000 8
b0 A
b110011 ?
b11011000 @
b1000000101000001010010011 ;
b11010000 =
b11100000 :
b11100000 U
b11100000 V
0!
#490000
b0 z
b0 9
0O
b10 C
1!
#491000
b0 z
1O
#495000
b101 %
b10000 &
b0 7
b0 8
b11100000 K
b1000000101000001010010011 L
b110011 ;
b0 =
b0 :
b0 U
b0 V
b11011000 <
0!
#500000
b0 z
0O
b0 C
b11100000 F
b11100000 E
b11100000 !"
1!
#501000
b0 z
1O
#505000
b0 (
b0 '
b1100000101 2
b1100000101 3
b1100000000 .
b1100000000 /
b1100000000 4
b1100000000 5
b101001101100000100 0
b101001101100000100 1
b110000010100101001000000000000 ,
b110000010100101001 -
b1100000101 6
b101 *
b101 +
b0 %
b0 &
b11011100 H
b11000000000000101000001110011 G
b11100000 B
b11100000 A
b110000010100101001000001110011 ?
b0 K
b110011 L
0!
#510000
b1010010111 $
b1010010111 X
b0 z
b11100000 9
b0 F
b0 E
b1 C
1D
0O
b11100000 Q
b11100000 T
1!
#511000
b0 z
1O
#515000
b1100000101 8
b110000010100101001000001110011 ;
b11100000 >
b11100000 W
b11100000 =
b11100000 :
b11100000 U
b11100000 V
b11011100 @
0!
#520000
0O
0D
b11100000 ;"
b0 z
1!
#521000
b0 z
1O
#525000
b0 2
b0 3
b0 .
b0 /
b0 4
b0 5
b0 0
b0 1
b0 ,
b0 -
b0 6
b0 *
b0 +
b1100000101 &
b0 A
b110011 ?
b11011100 <
b11100000 K
b110000010100101001000001110011 L
0!
#530000
b0 z
b11100000 ;"
0O
b10 C
1!
#531000
b0 z
1O
#535000
b0 8
b110011 ;
b0 =
0!
#540000
0O
b0 C
b0 z
1!
#541000
b0 z
1O
#545000
b110000000 2
b110000000 3
b110000000 .
b110000000 /
b110000000 4
b110000000 5
b101000110000000 0
b101000110000000 1
b11000000000000101000000000000 ,
b11000000000000101 -
b110000000 6
b0 &
b11100000 H
b1010010111 G
b0 B
b11000000000000101000001110011 ?
b110011 L
0!
#550000
b10000000101000001010010011 $
b10000000101000001010010011 X
b0 z
b0 9
b1 C
1D
0O
b11100100 Q
b11100100 T
1!
#551000
b0 z
1O
